{
  "hostname": "http://localhost:8080",
  "apps": [
    {
      "name": "app1",
      "id": "123e4567-e89b-12d3-a456-426655440000",
      "access_token": "jioh15274fhg1"
    },
    {
      "name": "app2",
      "id": "457e4567-e89b-12d3-a456-426655440000",
      "access_token": "lfuixc1h2f1"
    }
  ]
}
